<svg width="74" height="74" viewBox="0 0 74 74" fill="none" xmlns="http://www.w3.org/2000/svg">
<path d="M0.999043 39.5H1.00096L30.9368 39.5115L9.77707 60.6874L9.77571 60.6888L13.3112 64.2243L13.3126 64.2229L34.4885 43.0632L34.5 72.999V73.001H39.5V72.999L39.5115 43.0632L60.6874 64.2229L60.6888 64.2243L64.2243 60.6888L64.2229 60.6874L43.0632 39.5115L72.999 39.5H73.001V34.5H72.999L43.0632 34.4885L64.2229 13.3126L64.2243 13.3112L60.6888 9.77571L60.6874 9.77707L39.5115 30.9368L39.5 1.00096V0.999043H34.5V1.00096L34.4885 30.9368L13.3126 9.77707L13.3112 9.77571L9.77571 13.3112L9.77707 13.3126L30.9368 34.4885L1.00096 34.5H0.999043V39.5Z" fill="#6537A6" stroke="#F7B142" stroke-width="5"/>
</svg>
